{
    "version": 2,
    "configurePresets": [
        {
            "name": "common",
            "displayName": "Common",
            "description": "Sets common requirements",
            "hidden": true,
            "binaryDir": "${sourceDir}/../themys_build/${presetName}",
            "warnings": {
                "dev": true,
                "deprecated": true,
                "uninitialized": false,
                "systemVars": true,
                "unusedCli": true
            },
            "generator": "Ninja"
        },
        {
            "name": "Base-UseServerPlugins-DoNotBuildDocumentation",
            "displayName": "UseServerPlugins-DoNotBuildDocumentation",
            "description": "ServerPlugins is used. Documentation is not built.",
            "hidden": true,
            "inherits": "common",
            "cacheVariables": {
                "USE_SERVERPLUGINS": true,
                "BUILD_DOCUMENTATION": false
            }
        },
        {
            "name": "Base-UseServerPlugins-BuildDocumentation",
            "displayName": "UseServerPlugins-BuildDocumentation",
            "description": "ServerPlugins is used. Documentation is built.",
            "hidden": true,
            "inherits": "common",
            "cacheVariables": {
                "USE_SERVERPLUGINS": true,
                "BUILD_DOCUMENTATION": true
            }
        },
        {
            "name": "Base-DoNotUseServerPlugins-BuildDocumentation",
            "displayName": "DoNotUseServerPlugins-BuildDocumentation",
            "description": "ServerPlugins is not used. Documentation is built.",
            "hidden": true,
            "inherits": "common",
            "cacheVariables": {
                "USE_SERVERPLUGINS": false,
                "BUILD_DOCUMENTATION": true
            }
        },
        {
            "name": "Base-DoNotUseServerPlugins-DoNotBuildDocumentation",
            "displayName": "DoNotUseServerPlugins-DoNotBuildDocumentation",
            "description": "ServerPlugins is not used. Documentation is not built.",
            "hidden": true,
            "inherits": "common",
            "cacheVariables": {
                "USE_SERVERPLUGINS": false,
                "BUILD_DOCUMENTATION": false
            }
        }
    ]
}
